%YAML 1.1
%TAG !u! tag:unity3d.com,2011:
--- !u!78 &1
TagManager:
  serializedVersion: 2
  tags:
  - BackgroundMusic
  - RotatingEnemy
  - Enemy
  - Asteroid
  - Comet
  - Planet
  - Satellite
  - BlackHole
  - GiantStar
  - SuperGiantStar
  layers:
  - Default
  - TransparentFX
  - Ignore Raycast
  - 
  - Water
  - UI
  - 
  - 
  - PostProcessing
  - Background
  - Middleground
  - Foreground
  - 
  - 
  - 
  - 
  - 
  - 
  - 
  - 
  - 
  - 
  - 
  - 
  - 
  - 
  - 
  - 
  - 
  - 
  - 
  - 
  m_SortingLayers:
  - name: Default
    uniqueID: 0
    locked: 0
  - name: Background
    uniqueID: 2316300999
    locked: 0
  - name: Middleground
    uniqueID: 1752284775
    locked: 0
  - name: Foreground
    uniqueID: 2620866585
    locked: 0
